{
"Version":"9.00",
"DelimitationSchedTypes":[
    {"ID":0,"IsDefaultCfg":1,"UpperLimit":5000,"TypeA":[0.6,2.5],"TypeB":[2.5,10],"TypeC":[0,0.6]},
    {"ID":1,"IsDefaultCfg":0,"ActionIDs":[9,13,118],"UpperLimit":5000,"TypeA":[0.6,2],"TypeB":[2,3],"TypeC":[0,0.6]}
],
"DelimitationSchedRatio":{
    "MaxSchedTimeRatio":0.67,
    "FirstIsMaxSchedTimeRatio":0.4,
    "MaxTwoSchedTimeRatio":0.7,
    "ExceStateMinSchedTimeRatio":0.2
},
"DelimitationNodeDataDef":[
    {"Level":0,"Def":[{"Code":0,"Type":0,"Tag":"Empty"},
    {"Code":1,"Type":0,"Tag":"Performance"},
    {"Code":2,"Type":0,"Tag":"Reliability"},
    {"Code":3,"Type":0,"Tag":"Network"},
    {"Code":4,"Type":0,"Tag":"TP"},
    {"Code":5,"Type":0,"Tag":"FingerPrint"},
    {"Code":6,"Type":0,"Tag":"LCD"}]
  },
  {"Level":1,"Def":[{"Code":0,"Type":0,"Tag":"Empty"},
    {"Code":1,"Type":0,"Tag":"System"},
    {"Code":2,"Type":0,"Tag":"AppSelf"}]
  },
  {"Level":2,"Def":[{"Code":0,"Type":1,"FuncID":0,"Tag":"CriticalException"},
    {"Code":1,"Type":1,"FuncID":1,"Limit":10,"Tag":"Runnable"},
    {"Code":2,"Type":1,"FuncID":2,"Limit":20,"Tag":"BlockIO"},
    {"Code":3,"Type":1,"FuncID":3,"Limit":5,"Tag":"DState"},
    {"Code":4,"Type":1,"FuncID":4,"Limit":75,"Tag":"Running"},
    {"Code":5,"Type":1,"FuncID":5,"Limit":-1,"Tag":"Sleep"},
    {"Code":6,"Type":1,"FuncID":6,"Tag":"Running&Sleep"},
    {"Code":7,"Type":1,"FuncID":7,"Tag":"Running&Runnable"},
    {"Code":8,"Type":1,"FuncID":8,"Tag":"Running&BlockIO"},
    {"Code":9,"Type":1,"FuncID":9,"Tag":"Running&DState"},
    {"Code":10,"Type":1,"FuncID":10,"Tag":"Sleep&Runnable"},
    {"Code":11,"Type":1,"FuncID":11,"Tag":"Sleep&BlockIO"},
    {"Code":12,"Type":1,"FuncID":12,"Tag":"Sleep&DState"},
    {"Code":13,"Type":1,"FuncID":13,"Tag":"DState&BlockIO&Runnable"},
    {"Code":14,"Type":1,"FuncID":14,"Tag":"NoPrimaryReason"},
    {"Code":15,"Type":1,"FuncID":15,"Tag":"SchedType3"},
    {"Code":16,"Type":1,"FuncID":16,"Tag":"SchedType4"}]
  },
  {"Level":3,"Def":[{"Code":0,"FuncID":0,"Type":1,"Tag":"UnknownReason"},
    {"Code":1,"Type":1,"FuncID":1,"Tag":"CpuOfflineByLowPower"},
    {"Code":2,"Type":1,"FuncID":2,"Tag":"CpuOfflineByHighThermal"},
    {"Code":3,"Type":1,"FuncID":3,"Tag":"CpuOfflineByUnknown"},
    {"Code":4,"Type":1,"FuncID":4,"Limit":50,"Tag":"BCpuFreqLimitByPG_L1"},
    {"Code":5,"Type":1,"FuncID":5,"Limit":50,"Tag":"BCpuFreqLimitByTherma_L1"},
    {"Code":6,"Type":1,"FuncID":6,"Limit":50,"Tag":"BCpuFreqLimitByEAPA_L1"},
    {"Code":7,"Type":1,"FuncID":7,"Limit":25,"Tag":"FrontAPPRunningInLU"},
    {"Code":8,"Type":1,"FuncID":8,"Limit":200,"Tag":"CpuC2StateTimeTooLong"},
    {"Code":9,"Type":1,"FuncID":9,"Limit":600,"Tag":"BackgroundCpuLoadHigh_L1"},
    {"Code":10,"Type":1,"FuncID":10,"Limit":300,"Tag":"SingleBlockIOTime"},
    {"Code":11,"Type":1,"FuncID":11,"Limit":1000,"Tag":"LowAvailableDisk"},
    {"Code":12,"Type":1,"FuncID":12,"Tag":"LowFreeMem"},
    {"Code":13,"Type":1,"FuncID":13,"Tag":"SDCardIsDefaultStorage"},
    {"Code":14,"Type":1,"FuncID":14,"Limit":200,"Tag":"SingleMallocTime"},
    {"Code":15,"Type":1,"FuncID":15,"Limit":400,"Tag":"TotalMallocTime"},
    {"Code":16,"Type":1,"FuncID":16,"Limit":1300,"Tag":"SUnreclaim_L1"},
    {"Code":17,"Type":1,"FuncID":17,"Tag":"FrontProcDex2oat"},
    {"Code":18,"Type":1,"FuncID":18,"Tag":"BackgroundProcDex2oat"},
    {"Code":19,"Type":1,"FuncID":19,"Tag":"ModemLogOn"},
    {"Code":20,"Type":3,"Jlog":380,"Limit":1,"Tag":"FreqGC"},
    {"Code":21,"Type":3,"Jlog":349,"Limit":10,"Tag":"FreqLMK"},
    {"Code":22,"Type":3,"Jlog":62,"Limit":400,"Tag":"FrontProcDoSqlite"},
    {"Code":23,"Type":1,"FuncID":20,"Tag":"AccessibilityOn"},
    {"Code":24,"Type":3,"Jlog":376,"Limit":100,"Tag":"SystemServerStarve"},
    {"Code":25,"Type":3,"Jlog":377,"Limit":1,"Tag":"BringDownServiceLockedHeavy"},
    {"Code":26,"Type":1,"FuncID":21,"Limit":200,"Tag":"SingleDStateTime"},
    {"Code":27,"Type":1,"FuncID":22,"Limit":66,"Tag":"ServiceRatio_L1"},
    {"Code":28,"Type":1,"FuncID":23,"Limit":500,"Tag":"SingleServiceCallTime"},
    {"Code":29,"Type":1,"FuncID":24,"Limit":600,"Tag":"MaxRTTTime"},
    {"Code":30,"Type":1,"FuncID":25,"Tag":"UseSoftwareDraw"},
    {"Code":31,"Type":3,"Jlog":379,"Limit":500,"Tag":"BitmapDecodeTime"},
    {"Code":32,"Type":1,"FuncID":26,"Limit":300,"Tag":"FrontProcDex2oatTime"},
    {"Code":33,"Type":1,"Tag":"ServiceRestartFrequently"},
    {"Code":34,"Type":1,"FuncID":27,"Tag":"AppRunningTimeTooLong"},
    {"Code":35,"Type":1,"FuncID":4,"Limit":20,"Tag":"BCpuFreqLimitByPG_L2"},
    {"Code":36,"Type":1,"FuncID":5,"Limit":20,"Tag":"BCpuFreqLimitByThermal_L2"},
    {"Code":37,"Type":1,"FuncID":6,"Limit":20,"Tag":"BCpuFreqLimitByEAPA_L2"},
    {"Code":38,"Type":1,"FuncID":4,"Limit":1,"Tag":"BCpuFreqLimitByPG_L3"},
    {"Code":39,"Type":1,"FuncID":5,"Limit":1,"Tag":"BCpuFreqLimitByThermal_L3"},
    {"Code":40,"Type":1,"FuncID":6,"Limit":1,"Tag":"BCpuFreqLimitByEAPA_L3"},
    {"Code":41,"Type":1,"FuncID":28,"Limit":50,"Tag":"LCpuFreqLimitByPG_L1"},
    {"Code":42,"Type":1,"FuncID":29,"Limit":50,"Tag":"LCpuFreqLimitByThermal_L1"},
    {"Code":43,"Type":1,"FuncID":30,"Limit":50,"Tag":"LCpuFreqLimitByEAPA_L1"},
    {"Code":44,"Type":1,"FuncID":28,"Limit":1,"Tag":"LCpuFreqLimitByPG_L2"},
    {"Code":45,"Type":1,"FuncID":29,"Limit":1,"Tag":"LCpuFreqLimitByThermal_L2"},
    {"Code":46,"Type":1,"FuncID":30,"Limit":1,"Tag":"LCpuFreqLimitByEAPA_L2"},
    {"Code":47,"Type":1,"FuncID":31,"Limit":20,"Tag":"AvgRunnableTime_L1"},
    {"Code":48,"Type":1,"FuncID":31,"Limit":10,"Tag":"AvgRunnableTime_L2"},
    {"Code":49,"Type":1,"FuncID":9,"Limit":400,"Tag":"BackgroundCpuLoadHigh_L2"},
    {"Code":50,"Type":1,"FuncID":16,"Limit":1000,"Tag":"SUnreclaim_L2"},
    {"Code":51,"Type":1,"FuncID":22,"Limit":50,"Tag":"ServiceRatio_L2"},
    {"Code":52,"Type":1,"FuncID":32,"Limit":66,"Tag":"NoServiceSleepRatio_L1"},
    {"Code":53,"Type":1,"FuncID":32,"Limit":49,"Tag":"NoServiceSleepRatio_L2"},
    {"Code":54,"Type":1,"FuncID":33,"Limit":10,"Tag":"CpuLoad600_C2_L1"},
    {"Code":55,"Type":1,"FuncID":16,"Limit":750,"Tag":"SUnreclaim_L3"},
    {"Code":56,"Type":1,"FuncID":34,"Limit":66,"Tag":"Running&UnServiceRatio_L1"},
    {"Code":57,"Type":1,"FuncID":35,"Limit":30,"Tag":"SleepRatio"},
    {"Code":58,"Type":1,"FuncID":36,"Limit":20,"Tag":"RunnableRatio"},
    {"Code":59,"Type":1,"FuncID":37,"Limit":20,"Tag":"BlockIORatio_L1"},
    {"Code":60,"Type":1,"FuncID":38,"Limit":20,"Tag":"DStateRatio"},
    {"Code":61,"Type":1,"FuncID":37,"Limit":30,"Tag":"BlockIORatio_L2"},
    {"Code":62,"Type":1,"FuncID":39,"Limit":200,"Tag":"MaxDStateBigThanBlockIO"},
    {"Code":63,"Type":1,"FuncID":40,"Limit":200,"Tag":"MaxBlockIOBigThanDState"},
    {"Code":64,"Type":1,"FuncID":41,"Limit":1,"Tag":"MaxIsDState"},
    {"Code":65,"Type":1,"FuncID":42,"Limit":1,"Tag":"MaxIsBlockIO"},
    {"Code":66,"Type":1,"FuncID":43,"Limit":1,"Tag":"MaxIsRunnable"},
    {"Code":67,"Type":1,"FuncID":23,"Limit":1200,"Tag":"SingleServiceCallTime_Critical"},
    {"Code":68,"Type":1,"FuncID":21,"Limit":1000,"Tag":"SingleDStateTime_Critical"},
    {"Code":69,"Type":1,"FuncID":10,"Limit":1000,"Tag":"SingleBlockIOTime_Critical"},
    {"Code":70,"Type":1,"FuncID":16,"Limit":1500,"Tag":"SUnreclaim_Critical"}]
  }
],
"DelimitationDecisionTree":{
  "Level":0,"Nodes":[
    {
      "Code":1,"SubNodes":{
        "Level":1,"Nodes":[
          {
            "Code":1,"SubNodes":{
              "Level":2,"Nodes":[
                {
                  "Code":0,"SubNodes":{
                    "Level":3,"Nodes":[
                      {"Code":67},{"Code":68},{"Code":69},{"Code":70}
                    ]
                  }
                },
                {
                  "Code":1,"SubNodes":{
                    "Level":3,"Nodes":[
                      {"Code":3} ,{"Code":4} ,{"Code":5} ,{"Code":6} ,{"Code":35},{"Code":36},
                      {"Code":37},{"Code":38},{"Code":39},{"Code":40},{"Code":47},{"Code":41},
                      {"Code":42},{"Code":43},{"Code":44},{"Code":45},{"Code":46},{"Code":7},
                      {"Code":9} ,{"Code":18},{"Code":49},{"Code":48},{"Code":0}
                    ]
                  }
                },
                {
                  "Code":2,"SubNodes":{
                    "Level":3,"Nodes":[
                        {"Code":10},{"Code":16},{"Code":4},{"Code":5},{"Code":6},{"Code":35},
                        {"Code":36},{"Code":37},{"Code":55},{"Code":20},{"Code":21},{"Code":18},
                        {"Code":19},{"Code":11},{"Code":38},{"Code":39},{"Code":40},{"Code":41},
                        {"Code":42},{"Code":43},{"Code":44},{"Code":45},{"Code":46},{"Code":0}
                    ]
                  }
                },
                {
                  "Code":3,"SubNodes":{
                    "Level":3,"Nodes":[
                        {"Code":26},{"Code":9},{"Code":3},{"Code":4},{"Code":5},{"Code":6},
                        {"Code":35},{"Code":36},{"Code":37},{"Code":38},{"Code":39},{"Code":40},
                        {"Code":41},{"Code":42},{"Code":43},{"Code":44},{"Code":45},{"Code":46},
                        {"Code":0}
                    ]
                  }
                },
                {
                  "Code":5,"SubNodes":{
                    "Level":3,"Nodes":[
                      {"Code":28},{"Code":27},{"Code":52},{"Code":24},{"Code":25},{"Code":51},
                      {"Code":17},{"Code":53},{"Code":0}
                    ]
                  }
                },
                {
                  "Code":4,"SubNodes":{
                    "Level":3,"Nodes":[
                        {"Code":3},{"Code":4},{"Code":5},{"Code":6},{"Code":35},{"Code":36},
                        {"Code":37},{"Code":38},{"Code":39},{"Code":40},{"Code":7},{"Code":14},
                        {"Code":15},{"Code":31},{"Code":22},{"Code":30},{"Code":54},{"Code":41},
                        {"Code":42},{"Code":43},{"Code":44},{"Code":45},{"Code":46},{"Code":50},
                        {"Code":23},{"Code":20},{"Code":21},{"Code":0}
                    ]
                  }
                },
                {
                  "Code":6,"SubNodes":{
                    "Level":3,"Nodes":[
                        {"Code":3},{"Code":4},{"Code":5},{"Code":6},{"Code":35},{"Code":36},
                        {"Code":37},{"Code":38},{"Code":39},{"Code":40},{"Code":14},{"Code":15},
                        {"Code":31},{"Code":22},{"Code":28},{"Code":24},{"Code":7},{"Code":30},
                        {"Code":54},{"Code":50},{"Code":9},{"Code":41},{"Code":42},{"Code":43},
                        {"Code":44},{"Code":45},{"Code":46},{"Code":25},{"Code":20},{"Code":21},
                        {"Code":23},{"Code":56},{"Code":51},{"Code":17},{"Code":57},{"Code":0}
                    ]
                  }
                },
                {
                  "Code":7,"SubNodes":{
                    "Level":3,"Nodes":[
                        {"Code":3},{"Code":4},{"Code":5},{"Code":6},{"Code":35},{"Code":36},
                        {"Code":37},{"Code":38},{"Code":39},{"Code":40},{"Code":7},{"Code":14},
                        {"Code":15},{"Code":31},{"Code":22},{"Code":30},{"Code":54},{"Code":41},
                        {"Code":42},{"Code":43},{"Code":44},{"Code":45},{"Code":46},{"Code":47},
                        {"Code":50},{"Code":9},{"Code":18},{"Code":20},{"Code":21},{"Code":23},
                        {"Code":49},{"Code":48},{"Code":58},{"Code":0}
                    ]
                  }
                },
                {
                  "Code":8,"SubNodes":{
                    "Level":3,"Nodes":[
                        {"Code":10},{"Code":16},{"Code":3},{"Code":4},{"Code":5},{"Code":6},
                        {"Code":35},{"Code":36},{"Code":37},{"Code":38},{"Code":39},{"Code":40},
                        {"Code":7},{"Code":55},{"Code":41},{"Code":42},{"Code":43},{"Code":44},
                        {"Code":45},{"Code":46},{"Code":20},{"Code":21},{"Code":18},{"Code":19},
                        {"Code":11},{"Code":41},{"Code":42},{"Code":43},{"Code":44},{"Code":45},
                        {"Code":46},{"Code":59},{"Code":0}
                    ]
                  }
                },
                {
                  "Code":9,"SubNodes":{
                    "Level":3,"Nodes":[
                        {"Code":26},{"Code":9},{"Code":3},{"Code":4},{"Code":5},{"Code":6},
                        {"Code":35},{"Code":36},{"Code":37},{"Code":38},{"Code":39},{"Code":40},
                        {"Code":7},{"Code":14},{"Code":15},{"Code":31},{"Code":22},{"Code":41},
                        {"Code":42},{"Code":43},{"Code":44},{"Code":45},{"Code":46},{"Code":50},
                        {"Code":23},{"Code":20},{"Code":21},{"Code":60},{"Code":0}
                    ]
                  }
                },
                {
                  "Code":10,"SubNodes":{
                    "Level":3,"Nodes":[
                        {"Code":28},{"Code":16},{"Code":3},{"Code":4},{"Code":5},{"Code":6},
                        {"Code":35},{"Code":36},{"Code":37},{"Code":38},{"Code":39},{"Code":40},
                        {"Code":24},{"Code":25},{"Code":41},{"Code":42},{"Code":43},{"Code":44},
                        {"Code":45},{"Code":46},{"Code":47},{"Code":7},{"Code":17},{"Code":9},
                        {"Code":18},{"Code":48},{"Code":58},{"Code":51},{"Code":0}
                    ]
                  }
                },
                {
                  "Code":11,"SubNodes":{
                    "Level":3,"Nodes":[
                        {"Code":10},{"Code":16},{"Code":28},{"Code":3},{"Code":4},{"Code":5},
                        {"Code":6},{"Code":35},{"Code":36},{"Code":37},{"Code":55},{"Code":24},
                        {"Code":25},{"Code":20},{"Code":21},{"Code":18},{"Code":19},{"Code":11},
                        {"Code":61},{"Code":41},{"Code":42},{"Code":43},{"Code":44},{"Code":45},
                        {"Code":46},{"Code":59},{"Code":51},{"Code":0}
                    ]
                  }
                },
                {
                  "Code":12,"SubNodes":{
                    "Level":3,"Nodes":[
                        {"Code":26},{"Code":28},{"Code":24},{"Code":9},{"Code":25},{"Code":3},
                        {"Code":4},{"Code":5},{"Code":6},{"Code":35},{"Code":36},{"Code":37},
                        {"Code":38},{"Code":39},{"Code":40},{"Code":41},{"Code":42},{"Code":43},
                        {"Code":44},{"Code":45},{"Code":46},{"Code":60},{"Code":51},{"Code":0}
                    ]
                  }
                },
                {
                  "Code":13,"SubNodes":{
                    "Level":3,"Nodes":[
                        {"Code":62},{"Code":63},{"Code":16},{"Code":3},{"Code":4},{"Code":5},
                        {"Code":6},{"Code":47},{"Code":35},{"Code":36},{"Code":37},{"Code":38},
                        {"Code":39},{"Code":40},{"Code":9},{"Code":20},{"Code":21},{"Code":18},
                        {"Code":41},{"Code":42},{"Code":43},{"Code":44},{"Code":45},{"Code":46},
                        {"Code":55},{"Code":19},{"Code":11},{"Code":49},{"Code":48},{"Code":64},
                        {"Code":65},{"Code":66}
                    ]
                  }
                },
                {
                  "Code":14,"SubNodes":{
                    "Level":3,"Nodes":[
                        {"Code":62},{"Code":63},{"Code":47},{"Code":16},{"Code":3},{"Code":4},
                        {"Code":5},{"Code":6},{"Code":35},{"Code":36},{"Code":37},{"Code":38},
                        {"Code":39},{"Code":40},{"Code":14},{"Code":15},{"Code":31},{"Code":22},
                        {"Code":28},{"Code":24},{"Code":7},{"Code":30},{"Code":54},{"Code":50},
                        {"Code":9},{"Code":41},{"Code":42},{"Code":43},{"Code":44},{"Code":45},
                        {"Code":46},{"Code":25},{"Code":20},{"Code":21},{"Code":23},{"Code":56},
                        {"Code":51},{"Code":17},{"Code":57},{"Code":0}
                    ]
                  }
                },
                {
                  "Code":15,"SubNodes":{
                    "Level":3,"Nodes":[
                        {"Code":62},{"Code":63},{"Code":28},{"Code":16},{"Code":3},{"Code":4},
                        {"Code":5},{"Code":6},{"Code":35},{"Code":36},{"Code":37},{"Code":38},
                        {"Code":39},{"Code":40},{"Code":14},{"Code":15},{"Code":31},{"Code":22},
                        {"Code":41},{"Code":42},{"Code":43},{"Code":44},{"Code":45},{"Code":46},
                        {"Code":9},{"Code":24},{"Code":55},{"Code":23},{"Code":20},{"Code":21},
                        {"Code":17},{"Code":18},{"Code":19},{"Code":11},{"Code":0}
                    ]
                  }
                },
                {
                  "Code":16,"SubNodes":{
                    "Level":3,"Nodes":[
                        {"Code":16},{"Code":3},{"Code":4},{"Code":5},{"Code":6},{"Code":35},
                        {"Code":36},{"Code":37},{"Code":38},{"Code":39},{"Code":40},{"Code":14},
                        {"Code":15},{"Code":31},{"Code":22},{"Code":41},{"Code":42},{"Code":43},
                        {"Code":44},{"Code":45},{"Code":46},{"Code":9},{"Code":24},{"Code":55},
                        {"Code":23},{"Code":20},{"Code":21},{"Code":17},{"Code":18},{"Code":19},
                        {"Code":11},{"Code":0}
                    ]
                  }
                }
              ]
            }
          }
        ]
      }
    },
    {
      "Code":2,"SubNodes":{
        "Level":3,"Nodes":[
          {"Type":2,"MinEvent":901000000,"MaxEvent":901000002,"Codes":[2000,2001,2002]},
          {"Type":2,"MinEvent":901001000,"MaxEvent":901001005,"Codes":[2003,2004,2005,2006,2007,2008]},
          {"Type":2,"MinEvent":901003001,"MaxEvent":901003001,"Codes":[2009]},
          {"Type":2,"MinEvent":901004000,"MaxEvent":901004004,"Codes":[2010,2011,2012,2013,2014]}
        ]
      }
    },
    {
      "Code":3,"SubNodes":{
        "Level":3,"Nodes":[
          {"Code":29}
        ]
      }
    },
    {
      "Code":4,"SubNodes":{
        "Level":3,"Nodes":[
          {"Type":2,"MinEvent":926011000,"MaxEvent":926011002,"Codes":[2200,2201,2202,2203]},
          {"Type":2,"MinEvent":926011004,"MaxEvent":926011008,"Codes":[2203,2204,2205,2206,2207]},
          {"Type":2,"MinEvent":926011014,"MaxEvent":926011023,"Codes":[2208,2209,2210,2211,2212,2213,2214,2215,2216]},
          {"Type":2,"MinEvent":926011025,"MaxEvent":926011025,"Codes":[2217]},
          {"Type":2,"MinEvent":926004000,"MaxEvent":926004004,"Codes":[2218,2219,2220,2221,2222]},
          {"Type":2,"MinEvent":926004015,"MaxEvent":926004015,"Codes":[2223]},
          {"Type":2,"MinEvent":926004020,"MaxEvent":926004022,"Codes":[2224,2225,2226]},
          {"Type":2,"MinEvent":926004024,"MaxEvent":926004024,"Codes":[2227]}
        ]
      }
    },
    {
      "Code":5,"SubNodes":{
        "Level":3,"Nodes":[
          {"Type":2,"MinEvent":912000001,"MaxEvent":912000001,"Codes":[2300]}
        ]
      }
    },
    {
      "Code":6,"SubNodes":{
        "Level":3,"Nodes":[
          {"Type":2,"MinEvent":922001000,"MaxEvent":922001003,"Codes":[2400,2401,2402,2403]},
          {"Type":2,"MinEvent":922001006,"MaxEvent":922001008,"Codes":[2404,2405,2406]},
          {"Type":2,"MinEvent":922001010,"MaxEvent":922001031,"Codes":[2407,2408,2409,2410,2411,2412,2413,2414,2415,2416,2417,2418,2419,2420,2421,2422,2423,2424,2425,2426]},
          {"Type":2,"MinEvent":922001034,"MaxEvent":922001036,"Codes":[2427,2428,2429]}
        ]
      }
    }
  ]
}
}
